{
  id: '',
  status: '',
  items: [
    {
      id: '',
      variant_id: '',
      name: '',
      unit_price: '',
      quantity: '',
      sku: '',
      is_ahora_12_eligible: true
    }
  ],
  url: '',
  customer: { name: '', country: '' }
}